R语言学习笔记 | Molaison's blogs
…
daily <- group_by(flights, year, month, day)
(per_day <- summarize(daily, flights = n()))
#> Source: local data frame [365 x 4]
#> Groups: year, month [?]
#>
#> year month day flights
#> <int> <int> <int> <int>
#> 1 2013 1 1 842
#> 2 2013 1 2 943
#> 3 2013 1 3 914
#> 4 2013 1 4 915
#> 5 2013 1 5 720
#> 6 2013 1 6 832
#> # ... with 359 more rows
…
tibble(
a = lubridate::now() + runif(1e3) * 86400,
b = lubridate::today() + runif(1e3) * 30,
c = 1:1e3,
d = runif(1e3),
e = sample(letters, 1e3, replace = TRUE)
)
#> # A tibble: 1,000 × 5
#> a b c d e
#> <dttm> <date> <int> <dbl> <chr>
#> 1 2016-10-10 17:14:14 2016-10-17 1 0.368 h
#> 2 2016-10-11 11:19:24 2016-10-22 2 0.612 n
#> 3 2016-10-11 05:43:03 2016-11-01 3 0.415 l
#> 4 2016-10-10 19:04:20 2016-10-31 4 0.212 x
#> 5 2016-10-10 15:28:37 2016-10-28 5 0.733 a
#> 6 2016-10-11 02:29:34 2016-10-24 6 0.460 v
#> # ... with 994 more rows
…
